             Info: Writing states. 2024/02/02 at 12:37:03


        Info: Finished writing states. 2024/02/02 at 12:37:03

Info: SCF converged in   12 iterations

Info: Number of matrix-vector products:         88
Info: Finished writing information to 'restart/gs'.

             Calculation ended on 2024/02/02 at 12:37:03

                          Walltime:  00.745s

Octopus emitted 1 warning.
