CalculationMode = gs

%Coordinates
'O' |  1.1432843 | 0.0 | 0.0
'O' | -1.1432843 | 0.0 | 0.0
%

SpinComponents = spin_polarized

ExtraStates = 1

FromScratch = yes

Spacing = 0.55
Radius = 6

ParDomains = no

#For future reference: PoissonSolverISFParallelData = no

FilterPotentials = filter_none

SCFCalculatePartialCharges = yes

ExperimentalFeatures = yes
MixField = density

PoissonSolver = isf
