CalculationMode = gs

%Coordinates
 'H' |  0.717157 | 0 | 0
 'H' | -0.717157 | 0 | 0
%

MaximumIter = 0

SpinComponents = spin_polarized

ExcessCharge = 1

Spacing = 0.5
Radius = 7.5589

%Occupations
0.8
0.2
%

XCFunctional = gga_x_pbek1_vdw

FilterPotentials = filter_none


RestartWrite = no
