{
  "version": 4,
  "include": [
    "CMakePresets-defaults.json"
  ],
  "configurePresets": [
    {
      "name": "_buildbot-base",
      "hidden": true,
      "generator": "Ninja",
      "inherits": [
        "default",
        "_native"
      ],
      "errors": {
        "deprecated": true
      },
      "cacheVariables": {
        "FETCHCONTENT_TRY_FIND_PACKAGE_MODE": {
          "type": "STRING",
          "value": "ALWAYS"
        },
        "CMAKE_BUILD_TYPE": {
          "type": "STRING",
          "value": "BuildBot"
        },
        "CMAKE_C_FLAGS_BUILDBOT": {
          "type": "STRING",
          "value": "-O3"
        },
        "CMAKE_CXX_FLAGS_BUILDBOT": {
          "type": "STRING",
          "value": "-O3"
        },
        "CMAKE_Fortran_FLAGS_BUILDBOT": {
          "type": "STRING",
          "value": "-O3"
        },
        "OCTOPUS_TESTS": {
          "type": "BOOL",
          "value": true
        },
        "OCTOPUS_TESTS_FULL": {
          "type": "BOOL",
          "value": true
        },
        "OCTOPUS_TESTS_REPORT": {
          "type": "BOOL",
          "value": true
        },
        "OCTOPUS_TESTS_RUN_SERIAL": {
          "type": "BOOL",
          "value": true
        },
        "OCTOPUS_NATIVE": {
          "type": "BOOL",
          "value": true
        },
        "FETCHCONTENT_SOURCE_DIR_SPGLIB": {
          "type": "FILEPATH",
          "value": "${sourceDir}/third_party/Spglib"
        },
        "CMAKE_REQUIRE_FIND_PACKAGE_Libxc": {
          "type": "BOOL",
          "value": true
        }
      }
    },
    {
      "name": "_buildbot-mpi",
      "hidden": true,
      "inherits": [
        "_buildbot-base",
        "_mpi"
      ],
      "cacheVariables": {
        "OCTOPUS_TESTS_RUN_SERIAL": {
          "type": "BOOL",
          "value": false
        }
      }
    },
    {
      "name": "_buildbot-foss",
      "hidden": true,
      "inherits": [
        "_buildbot-base"
      ],
      "cacheVariables": {
        "CMAKE_C_COMPILER": {
          "type": "FILEPATH",
          "value": "gcc"
        },
        "CMAKE_CXX_COMPILER": {
          "type": "FILEPATH",
          "value": "g++"
        },
        "CMAKE_Fortran_COMPILER": {
          "type": "FILEPATH",
          "value": "gfortran"
        },
        "OCTOPUS_FFTW": {
          "type": "BOOL",
          "value": true
        },
        "OCTOPUS_MKL": {
          "type": "BOOL",
          "value": false
        }
      }
    },
    {
      "name": "_buildbot-intel",
      "hidden": true,
      "inherits": [
        "_buildbot-base"
      ],
      "cacheVariables": {
        "CMAKE_C_COMPILER": {
          "type": "FILEPATH",
          "value": "icc"
        },
        "CMAKE_CXX_COMPILER": {
          "type": "FILEPATH",
          "value": "icpc"
        },
        "CMAKE_Fortran_COMPILER": {
          "type": "FILEPATH",
          "value": "ifort"
        },
        "OCTOPUS_FFTW": {
          "type": "BOOL",
          "value": false
        },
        "OCTOPUS_MKL": {
          "type": "BOOL",
          "value": true
        },
        "MKL_ROOT": {
          "type": "FILEPATH",
          "value": "$env{MKLROOT}"
        }
      }
    },
    {
      "name": "foss-min",
      "displayName": "Buildbot - Foss toolchain + min + serial",
      "inherits": [
        "_buildbot-foss",
        "_serial",
        "_min"
      ],
      "binaryDir": "cmake-build-ci-foss-min"
    },
    {
      "name": "foss-min-mpi",
      "displayName": "Buildbot - Foss toolchain + min + MPI",
      "inherits": [
        "_buildbot-mpi",
        "_buildbot-foss",
        "_min"
      ],
      "binaryDir": "cmake-build-ci-foss-min-mpi"
    },
    {
      "name": "foss-full",
      "displayName": "Buildbot - Foss toolchain + full + serial",
      "inherits": [
        "_buildbot-foss",
        "_serial",
        "_full-required"
      ],
      "binaryDir": "cmake-build-ci-foss-full"
    },
    {
      "name": "foss-full-cuda",
      "displayName": "Buildbot - Foss toolchain + full + CUDA + serial",
      "inherits": [
        "_buildbot-foss",
        "_serial",
        "_full-required",
        "_cuda"
      ],
      "binaryDir": "cmake-build-ci-foss-full-cuda"
    },
    {
      "name": "foss-full-opencl",
      "displayName": "Buildbot - Foss toolchain + full + OpenCL + serial",
      "inherits": [
        "_buildbot-foss",
        "_serial",
        "_full-required",
        "_opencl"
      ],
      "binaryDir": "cmake-build-ci-foss-full-opencl"
    },
    {
      "name": "foss-full-mpi",
      "displayName": "Buildbot - Foss toolchain + full + MPI",
      "inherits": [
        "_buildbot-mpi",
        "_buildbot-foss",
        "_full-mpi-required"
      ],
      "binaryDir": "cmake-build-ci-foss-full-mpi"
    },
    {
      "name": "foss-full-cuda-mpi",
      "displayName": "Buildbot - Foss toolchain + full + CUDA + MPI",
      "inherits": [
        "_buildbot-mpi",
        "_buildbot-foss",
        "_full-mpi-required",
        "_cuda"
      ],
      "binaryDir": "cmake-build-ci-foss-full-cuda-mpi"
    },
    {
      "name": "foss-full-opencl-mpi",
      "displayName": "Buildbot - Foss toolchain + full + OpenCL + MPI",
      "inherits": [
        "_buildbot-mpi",
        "_buildbot-foss",
        "_full-mpi-required",
        "_opencl"
      ],
      "binaryDir": "cmake-build-ci-foss-full-opencl-mpi"
    },
    {
      "name": "foss-full-cuda-mpi-omp",
      "displayName": "Buildbot - Foss toolchain + full + CUDA + MPI + OpenMP",
      "inherits": [
        "_buildbot-mpi",
        "_buildbot-foss",
        "_full-mpi-required",
        "_cuda",
        "_openmp"
      ],
      "binaryDir": "cmake-build-ci-foss-full-cuda-mpi-omp",
      "cacheVariables": {
        "CMAKE_DISABLE_FIND_PACKAGE_DftbPlus": {
          "type": "BOOL",
          "value": true
        },
        "CMAKE_REQUIRE_FIND_PACKAGE_DftbPlus": {
          "type": "BOOL",
          "value": false
        }
      }
    },
    {
      "name": "foss-full-opencl-mpi-omp",
      "displayName": "Buildbot - Foss toolchain + full + OpenCL + MPI + OpenMP",
      "inherits": [
        "_buildbot-mpi",
        "_buildbot-foss",
        "_full-mpi-required",
        "_opencl",
        "_openmp"
      ],
      "binaryDir": "cmake-build-ci-foss-full-opencl-mpi-omp",
      "cacheVariables": {
        "CMAKE_DISABLE_FIND_PACKAGE_DftbPlus": {
          "type": "BOOL",
          "value": true
        },
        "CMAKE_REQUIRE_FIND_PACKAGE_DftbPlus": {
          "type": "BOOL",
          "value": false
        }
      }
    },
    {
      "name": "intel-min",
      "displayName": "Buildbot - Intel toolchain + min + serial",
      "inherits": [
        "_buildbot-intel",
        "_serial",
        "_min"
      ],
      "binaryDir": "cmake-build-ci-intel-min"
    },
    {
      "name": "intel-min-mpi",
      "displayName": "Buildbot - Intel toolchain + min + MPI",
      "inherits": [
        "_buildbot-mpi",
        "_buildbot-intel",
        "_min"
      ],
      "binaryDir": "cmake-build-ci-intel-min-mpi"
    },
    {
      "name": "intel-full",
      "displayName": "Buildbot - Intel toolchain + full + serial",
      "inherits": [
        "_buildbot-intel",
        "_serial",
        "_full-required"
      ],
      "binaryDir": "cmake-build-ci-intel-full"
    },
    {
      "name": "intel-full-cuda",
      "displayName": "Buildbot - Intel toolchain + full + CUDA + serial",
      "inherits": [
        "_buildbot-intel",
        "_serial",
        "_full-required",
        "_cuda"
      ],
      "binaryDir": "cmake-build-ci-intel-full-cuda"
    },
    {
      "name": "intel-full-opencl",
      "displayName": "Buildbot - Intel toolchain + full + OpenCL + serial",
      "inherits": [
        "_buildbot-intel",
        "_serial",
        "_full-required",
        "_opencl"
      ],
      "binaryDir": "cmake-build-ci-intel-full-opencl"
    },
    {
      "name": "intel-full-mpi",
      "displayName": "Buildbot - Intel toolchain + full + MPI",
      "inherits": [
        "_buildbot-mpi",
        "_buildbot-intel",
        "_full-mpi-required"
      ],
      "binaryDir": "cmake-build-ci-intel-full-mpi"
    },
    {
      "name": "intel-full-cuda-mpi",
      "displayName": "Buildbot - Intel toolchain + full + CUDA + MPI",
      "inherits": [
        "_buildbot-mpi",
        "_buildbot-intel",
        "_full-mpi-required",
        "_cuda"
      ],
      "binaryDir": "cmake-build-ci-intel-full-cuda-mpi"
    },
    {
      "name": "intel-full-opencl-mpi",
      "displayName": "Buildbot - Intel toolchain + full + OpenCL + MPI",
      "inherits": [
        "_buildbot-mpi",
        "_buildbot-intel",
        "_full-mpi-required",
        "_opencl"
      ],
      "binaryDir": "cmake-build-ci-intel-full-opencl-mpi"
    },
    {
      "name": "intel-full-cuda-mpi-omp",
      "displayName": "Buildbot - Intel toolchain + full + CUDA + MPI + OpenMP",
      "inherits": [
        "_buildbot-mpi",
        "_buildbot-intel",
        "_full-mpi-required",
        "_cuda",
        "_openmp"
      ],
      "binaryDir": "cmake-build-ci-intel-full-cuda-mpi-omp",
      "cacheVariables": {
        "CMAKE_DISABLE_FIND_PACKAGE_DftbPlus": {
          "type": "BOOL",
          "value": true
        },
        "CMAKE_REQUIRE_FIND_PACKAGE_DftbPlus": {
          "type": "BOOL",
          "value": false
        }
      }
    },
    {
      "name": "intel-full-opencl-mpi-omp",
      "displayName": "Buildbot - Intel toolchain + full + OpenCL + MPI + OpenMP",
      "inherits": [
        "_buildbot-mpi",
        "_buildbot-intel",
        "_full-mpi-required",
        "_opencl",
        "_openmp"
      ],
      "binaryDir": "cmake-build-ci-intel-full-opencl-mpi-omp",
      "cacheVariables": {
        "CMAKE_DISABLE_FIND_PACKAGE_DftbPlus": {
          "type": "BOOL",
          "value": true
        },
        "CMAKE_REQUIRE_FIND_PACKAGE_DftbPlus": {
          "type": "BOOL",
          "value": false
        }
      }
    }
  ],
  "buildPresets": [
    {
      "name": "_buildbot-base",
      "hidden": true,
      "inherits": [
        "default"
      ],
      "cleanFirst": true
    },
    {
      "name": "foss-min",
      "displayName": "Buildbot - Foss toolchain + min + serial",
      "inherits": [
        "_buildbot-base"
      ],
      "configurePreset": "foss-min"
    },
    {
      "name": "foss-min-mpi",
      "displayName": "Buildbot - Foss toolchain + min + MPI",
      "inherits": [
        "_buildbot-base"
      ],
      "configurePreset": "foss-min-mpi"
    },
    {
      "name": "foss-full",
      "displayName": "Buildbot - Foss toolchain + full + serial",
      "inherits": [
        "_buildbot-base"
      ],
      "configurePreset": "foss-full"
    },
    {
      "name": "foss-full-cuda",
      "displayName": "Buildbot - Foss toolchain + full + CUDA + serial",
      "inherits": [
        "_buildbot-base"
      ],
      "configurePreset": "foss-full-cuda"
    },
    {
      "name": "foss-full-opencl",
      "displayName": "Buildbot - Foss toolchain + full + OpenCL + serial",
      "inherits": [
        "_buildbot-base"
      ],
      "configurePreset": "foss-full-opencl"
    },
    {
      "name": "foss-full-mpi",
      "displayName": "Buildbot - Foss toolchain + full + MPI",
      "inherits": [
        "_buildbot-base"
      ],
      "configurePreset": "foss-full-mpi"
    },
    {
      "name": "foss-full-cuda-mpi",
      "displayName": "Buildbot - Foss toolchain + full + CUDA + MPI",
      "inherits": [
        "_buildbot-base"
      ],
      "configurePreset": "foss-full-cuda-mpi"
    },
    {
      "name": "foss-full-opencl-mpi",
      "displayName": "Buildbot - Foss toolchain + full + OpenCL + MPI",
      "inherits": [
        "_buildbot-base"
      ],
      "configurePreset": "foss-full-opencl-mpi"
    },
    {
      "name": "foss-full-cuda-mpi-omp",
      "displayName": "Buildbot - Foss toolchain + full + CUDA + MPI + OpenMP",
      "inherits": [
        "_buildbot-base"
      ],
      "configurePreset": "foss-full-cuda-mpi-omp"
    },
    {
      "name": "foss-full-opencl-mpi-omp",
      "displayName": "Buildbot - Foss toolchain + full + OpenCL + MPI + OpenMP",
      "inherits": [
        "_buildbot-base"
      ],
      "configurePreset": "foss-full-opencl-mpi-omp"
    },
    {
      "name": "intel-min",
      "displayName": "Buildbot - Intel toolchain + min + serial",
      "inherits": [
        "_buildbot-base"
      ],
      "configurePreset": "intel-min"
    },
    {
      "name": "intel-min-mpi",
      "displayName": "Buildbot - Intel toolchain + min + MPI",
      "inherits": [
        "_buildbot-base"
      ],
      "configurePreset": "intel-min-mpi"
    },
    {
      "name": "intel-full",
      "displayName": "Buildbot - Intel toolchain + full + serial",
      "inherits": [
        "_buildbot-base"
      ],
      "configurePreset": "intel-full"
    },
    {
      "name": "intel-full-cuda",
      "displayName": "Buildbot - Intel toolchain + full + CUDA + serial",
      "inherits": [
        "_buildbot-base"
      ],
      "configurePreset": "intel-full-cuda"
    },
    {
      "name": "intel-full-opencl",
      "displayName": "Buildbot - Intel toolchain + full + OpenCL + serial",
      "inherits": [
        "_buildbot-base"
      ],
      "configurePreset": "intel-full-opencl"
    },
    {
      "name": "intel-full-mpi",
      "displayName": "Buildbot - Intel toolchain + full + MPI",
      "inherits": [
        "_buildbot-base"
      ],
      "configurePreset": "intel-full-mpi"
    },
    {
      "name": "intel-full-cuda-mpi",
      "displayName": "Buildbot - Intel toolchain + full + CUDA + MPI",
      "inherits": [
        "_buildbot-base"
      ],
      "configurePreset": "intel-full-cuda-mpi"
    },
    {
      "name": "intel-full-opencl-mpi",
      "displayName": "Buildbot - Intel toolchain + full + OpenCL + MPI",
      "inherits": [
        "_buildbot-base"
      ],
      "configurePreset": "intel-full-opencl-mpi"
    },
    {
      "name": "intel-full-cuda-mpi-omp",
      "displayName": "Buildbot - Intel toolchain + full + CUDA + MPI + OpenMP",
      "inherits": [
        "_buildbot-base"
      ],
      "configurePreset": "intel-full-cuda-mpi-omp"
    },
    {
      "name": "intel-full-opencl-mpi-omp",
      "displayName": "Buildbot - Intel toolchain + full + OpenCL + MPI + OpenMP",
      "inherits": [
        "_buildbot-base"
      ],
      "configurePreset": "intel-full-opencl-mpi-omp"
    }
  ],
  "testPresets": [
    {
      "name": "_buildbot-base",
      "hidden": true,
      "inherits": [
        "default"
      ],
      "output": {
        "outputOnFailure": true
      },
      "filter": {
        "include": {
          "label": ".*"
        },
        "exclude": {
          "label": "failing"
        }
      }
    },
    {
      "name": "_buildbot-gpu",
      "hidden": true,
      "execution": {
        "resourceSpecFile": "${fileDir}/ctest_resources.json"
      }
    },
    {
      "name": "foss-min",
      "displayName": "Buildbot - Foss toolchain + min + serial",
      "inherits": [
        "_buildbot-base"
      ],
      "configurePreset": "foss-min"
    },
    {
      "name": "foss-min-mpi",
      "displayName": "Buildbot - Foss toolchain + min + MPI",
      "inherits": [
        "_buildbot-base"
      ],
      "configurePreset": "foss-min-mpi"
    },
    {
      "name": "foss-full",
      "displayName": "Buildbot - Foss toolchain + full + serial",
      "inherits": [
        "_buildbot-base"
      ],
      "configurePreset": "foss-full"
    },
    {
      "name": "foss-full-cuda",
      "displayName": "Buildbot - Foss toolchain + full + CUDA + serial",
      "inherits": [
        "_buildbot-base",
        "_buildbot-gpu"
      ],
      "configurePreset": "foss-full-cuda"
    },
    {
      "name": "foss-full-opencl",
      "displayName": "Buildbot - Foss toolchain + full + OpenCL + serial",
      "inherits": [
        "_buildbot-base",
        "_buildbot-gpu"
      ],
      "configurePreset": "foss-full-opencl"
    },
    {
      "name": "foss-full-mpi",
      "displayName": "Buildbot - Foss toolchain + full + MPI",
      "inherits": [
        "_buildbot-base"
      ],
      "configurePreset": "foss-full-mpi"
    },
    {
      "name": "foss-full-cuda-mpi",
      "displayName": "Buildbot - Foss toolchain + full + CUDA + MPI",
      "inherits": [
        "_buildbot-base",
        "_buildbot-gpu"
      ],
      "configurePreset": "foss-full-cuda-mpi"
    },
    {
      "name": "foss-full-opencl-mpi",
      "displayName": "Buildbot - Foss toolchain + full + OpenCL + MPI",
      "inherits": [
        "_buildbot-base",
        "_buildbot-gpu"
      ],
      "configurePreset": "foss-full-opencl-mpi"
    },
    {
      "name": "foss-full-cuda-mpi-omp",
      "displayName": "Buildbot - Foss toolchain + full + CUDA + MPI + OpenMP",
      "inherits": [
        "_buildbot-base",
        "_buildbot-gpu"
      ],
      "configurePreset": "foss-full-cuda-mpi-omp"
    },
    {
      "name": "foss-full-opencl-mpi-omp",
      "displayName": "Buildbot - Foss toolchain + full + OpenCL + MPI + OpenMP",
      "inherits": [
        "_buildbot-base",
        "_buildbot-gpu"
      ],
      "configurePreset": "foss-full-opencl-mpi-omp"
    },
    {
      "name": "intel-min",
      "displayName": "Buildbot - Intel toolchain + min + serial",
      "inherits": [
        "_buildbot-base"
      ],
      "configurePreset": "intel-min"
    },
    {
      "name": "intel-min-mpi",
      "displayName": "Buildbot - Intel toolchain + min + MPI",
      "inherits": [
        "_buildbot-base"
      ],
      "configurePreset": "intel-min-mpi"
    },
    {
      "name": "intel-full",
      "displayName": "Buildbot - Intel toolchain + full + serial",
      "inherits": [
        "_buildbot-base"
      ],
      "configurePreset": "intel-full"
    },
    {
      "name": "intel-full-cuda",
      "displayName": "Buildbot - Intel toolchain + full + CUDA + serial",
      "inherits": [
        "_buildbot-base",
        "_buildbot-gpu"
      ],
      "configurePreset": "intel-full-cuda"
    },
    {
      "name": "intel-full-opencl",
      "displayName": "Buildbot - Intel toolchain + full + OpenCL + serial",
      "inherits": [
        "_buildbot-base",
        "_buildbot-gpu"
      ],
      "configurePreset": "intel-full-opencl"
    },
    {
      "name": "intel-full-mpi",
      "displayName": "Buildbot - Intel toolchain + full + MPI",
      "inherits": [
        "_buildbot-base"
      ],
      "configurePreset": "intel-full-mpi"
    },
    {
      "name": "intel-full-cuda-mpi",
      "displayName": "Buildbot - Intel toolchain + full + CUDA + MPI",
      "inherits": [
        "_buildbot-base",
        "_buildbot-gpu"
      ],
      "configurePreset": "intel-full-cuda-mpi"
    },
    {
      "name": "intel-full-opencl-mpi",
      "displayName": "Buildbot - Intel toolchain + full + OpenCL + MPI",
      "inherits": [
        "_buildbot-base",
        "_buildbot-gpu"
      ],
      "configurePreset": "intel-full-opencl-mpi"
    },
    {
      "name": "intel-full-cuda-mpi-omp",
      "displayName": "Buildbot - Intel toolchain + full + CUDA + MPI + OpenMP",
      "inherits": [
        "_buildbot-base",
        "_buildbot-gpu"
      ],
      "configurePreset": "intel-full-cuda-mpi-omp"
    },
    {
      "name": "intel-full-opencl-mpi-omp",
      "displayName": "Buildbot - Intel toolchain + full + OpenCL + MPI + OpenMP",
      "inherits": [
        "_buildbot-base",
        "_buildbot-gpu"
      ],
      "configurePreset": "intel-full-opencl-mpi-omp"
    }
  ]
}
