     4
 Wannier centres, written by Wannier90 on30May2022 at 15:55:38
X          0.66739910       0.67893707       0.65668526
X          2.06429586       1.92266878       0.81188792
Si         0.00000000       0.00000000       0.00000000
Si         1.34940188       1.34940188       1.34940188
